{"failedCount":3,"prefixedPath":"src\/test\/java\/tests\/Get.feature","packageQualifiedName":"src.test.java.tests.Get","loopIndex":-1,"relativePath":"src\/test\/java\/tests\/Get.feature","scenarioResults":[{"sectionIndex":0,"stepResults":[{"result":{"nanos":10287300,"millis":10.2873,"status":"passed"},"step":{"background":true,"line":4,"prefix":"*","index":0,"text":"url 'https:\/\/reqres.in\/api'"},"stepLog":"00:08:51.037 The value of env is  null \n"},{"result":{"nanos":1042500,"millis":1.0425,"status":"passed"},"step":{"background":true,"line":5,"prefix":"*","index":1,"text":"header Accept = 'application\/json'"}},{"result":{"nanos":712100,"millis":0.7121,"status":"passed"},"step":{"line":9,"prefix":"Given","index":0,"text":"path '\/users?page=2'"}},{"result":{"nanos":1419159600,"errorMessage":"http call failed after 1406 milliseconds for url: https:\/\/reqres.in\/api\/users%3Fpage=2\nsrc\/test\/java\/tests\/Get.feature:10","millis":1419.1596,"status":"failed"},"step":{"line":10,"prefix":"When","index":1,"text":"method GET"},"stepLog":"00:08:51.936 request:\n1 > GET https:\/\/reqres.in\/api\/users%3Fpage=2\n1 > Accept: application\/json\n1 > Host: reqres.in\n1 > Connection: Keep-Alive\n1 > User-Agent: Apache-HttpClient\/4.5.13 (Java\/15.0.2)\n1 > Accept-Encoding: gzip,deflate\n\n\n00:08:52.564 java.net.SocketTimeoutException: Read timed out, http call failed after 1406 milliseconds for url: https:\/\/reqres.in\/api\/users%3Fpage=2\n00:08:52.565 src\/test\/java\/tests\/Get.feature:10\nWhen method GET\nhttp call failed after 1406 milliseconds for url: https:\/\/reqres.in\/api\/users%3Fpage=2\nsrc\/test\/java\/tests\/Get.feature:10\n"},{"result":{"nanos":0,"millis":0.0,"status":"skipped"},"step":{"line":11,"prefix":"Then","index":2,"text":"status 200"}},{"result":{"nanos":0,"millis":0.0,"status":"skipped"},"step":{"line":12,"prefix":"And","index":3,"text":"print response"}},{"result":{"nanos":0,"millis":0.0,"status":"skipped"},"step":{"line":13,"prefix":"And","index":4,"text":"print responseStatus"}},{"result":{"nanos":0,"millis":0.0,"status":"skipped"},"step":{"line":14,"prefix":"And","index":5,"text":"print responseTime"}},{"result":{"nanos":0,"millis":0.0,"status":"skipped"},"step":{"line":15,"prefix":"And","index":6,"text":"print responseHeaders"}},{"result":{"nanos":0,"millis":0.0,"status":"skipped"},"step":{"line":16,"prefix":"And","index":7,"text":"print responseCookies"}}],"line":8,"description":"","durationMillis":1431.2015,"failed":true,"error":"http call failed after 1406 milliseconds for url: https:\/\/reqres.in\/api\/users%3Fpage=2\nsrc\/test\/java\/tests\/Get.feature:10","executorName":"main","name":"Get Demo 1","startTime":1672196930473,"refId":"[1:8]","endTime":1672196932565,"exampleIndex":-1},{"sectionIndex":1,"stepResults":[{"result":{"nanos":868700,"millis":0.8687,"status":"passed"},"step":{"background":true,"line":4,"prefix":"*","index":0,"text":"url 'https:\/\/reqres.in\/api'"},"stepLog":"00:08:52.580 The value of env is  null \n"},{"result":{"nanos":590100,"millis":0.5901,"status":"passed"},"step":{"background":true,"line":5,"prefix":"*","index":1,"text":"header Accept = 'application\/json'"}},{"result":{"nanos":348800,"millis":0.3488,"status":"passed"},"step":{"line":20,"prefix":"Given","index":0,"text":"path '\/users?page=2'"}},{"result":{"nanos":197543800,"errorMessage":"http call failed after 197 milliseconds for url: https:\/\/reqres.in\/api\/users%3Fpage=2\nsrc\/test\/java\/tests\/Get.feature:21","millis":197.5438,"status":"failed"},"step":{"line":21,"prefix":"When","index":1,"text":"method GET"},"stepLog":"00:08:52.585 request:\n1 > GET https:\/\/reqres.in\/api\/users%3Fpage=2\n1 > Accept: application\/json\n1 > Host: reqres.in\n1 > Connection: Keep-Alive\n1 > User-Agent: Apache-HttpClient\/4.5.13 (Java\/15.0.2)\n1 > Accept-Encoding: gzip,deflate\n\n\n00:08:52.781 java.net.SocketTimeoutException: Read timed out, http call failed after 197 milliseconds for url: https:\/\/reqres.in\/api\/users%3Fpage=2\n00:08:52.781 src\/test\/java\/tests\/Get.feature:21\nWhen method GET\nhttp call failed after 197 milliseconds for url: https:\/\/reqres.in\/api\/users%3Fpage=2\nsrc\/test\/java\/tests\/Get.feature:21\n"},{"result":{"nanos":0,"millis":0.0,"status":"skipped"},"step":{"line":22,"prefix":"Then","index":2,"text":"status 200"}},{"result":{"nanos":0,"millis":0.0,"status":"skipped"},"step":{"line":23,"prefix":"And","index":3,"text":"print response"}}],"line":19,"description":"","durationMillis":199.3514,"failed":true,"error":"http call failed after 197 milliseconds for url: https:\/\/reqres.in\/api\/users%3Fpage=2\nsrc\/test\/java\/tests\/Get.feature:21","executorName":"main","name":"Get Demo 2","startTime":1672196932575,"refId":"[2:19]","endTime":1672196932781,"exampleIndex":-1},{"sectionIndex":2,"stepResults":[{"result":{"nanos":499400,"millis":0.4994,"status":"passed"},"step":{"background":true,"line":4,"prefix":"*","index":0,"text":"url 'https:\/\/reqres.in\/api'"},"stepLog":"00:08:52.792 The value of env is  null \n"},{"result":{"nanos":402800,"millis":0.4028,"status":"passed"},"step":{"background":true,"line":5,"prefix":"*","index":1,"text":"header Accept = 'application\/json'"}},{"result":{"nanos":856500,"millis":0.8565,"status":"passed"},"step":{"line":27,"prefix":"Given","index":0,"text":"path '\/users'"}},{"result":{"nanos":3257700,"millis":3.2577,"status":"passed"},"step":{"line":28,"prefix":"And","index":1,"text":"param page = 2"}},{"result":{"nanos":121917100,"errorMessage":"http call failed after 119 milliseconds for url: https:\/\/reqres.in\/api\/users?page=2\nsrc\/test\/java\/tests\/Get.feature:29","millis":121.9171,"status":"failed"},"step":{"line":29,"prefix":"When","index":2,"text":"method GET"},"stepLog":"00:08:52.806 request:\n1 > GET https:\/\/reqres.in\/api\/users?page=2\n1 > Accept: application\/json\n1 > Host: reqres.in\n1 > Connection: Keep-Alive\n1 > User-Agent: Apache-HttpClient\/4.5.13 (Java\/15.0.2)\n1 > Accept-Encoding: gzip,deflate\n\n\n00:08:52.921 java.net.SocketTimeoutException: Read timed out, http call failed after 119 milliseconds for url: https:\/\/reqres.in\/api\/users?page=2\n00:08:52.921 src\/test\/java\/tests\/Get.feature:29\nWhen method GET\nhttp call failed after 119 milliseconds for url: https:\/\/reqres.in\/api\/users?page=2\nsrc\/test\/java\/tests\/Get.feature:29\n"},{"result":{"nanos":0,"millis":0.0,"status":"skipped"},"step":{"line":30,"prefix":"Then","index":3,"text":"status 200"}},{"result":{"nanos":0,"millis":0.0,"status":"skipped"},"step":{"line":31,"prefix":"And","index":4,"text":"print response"}}],"line":26,"description":"","durationMillis":126.9335,"failed":true,"error":"http call failed after 119 milliseconds for url: https:\/\/reqres.in\/api\/users?page=2\nsrc\/test\/java\/tests\/Get.feature:29","executorName":"main","name":"Get Demo 3","startTime":1672196932790,"refId":"[3:26]","endTime":1672196932922,"exampleIndex":-1},{"sectionIndex":3,"stepResults":[{"result":{"nanos":491500,"millis":0.4915,"status":"passed"},"step":{"background":true,"line":4,"prefix":"*","index":0,"text":"url 'https:\/\/reqres.in\/api'"},"stepLog":"00:08:52.932 The value of env is  null \n"},{"result":{"nanos":342200,"millis":0.3422,"status":"passed"},"step":{"background":true,"line":5,"prefix":"*","index":1,"text":"header Accept = 'application\/json'"}},{"result":{"nanos":184700,"millis":0.1847,"status":"passed"},"step":{"line":35,"prefix":"Given","index":0,"text":"path '\/users'"}},{"result":{"nanos":359300,"millis":0.3593,"status":"passed"},"step":{"line":36,"prefix":"And","index":1,"text":"param page = 2"}},{"result":{"nanos":328805500,"millis":328.8055,"status":"passed"},"step":{"line":37,"prefix":"When","index":2,"text":"method GET"},"stepLog":"00:08:52.939 request:\n1 > GET https:\/\/reqres.in\/api\/users?page=2\n1 > Accept: application\/json\n1 > Host: reqres.in\n1 > Connection: Keep-Alive\n1 > User-Agent: Apache-HttpClient\/4.5.13 (Java\/15.0.2)\n1 > Accept-Encoding: gzip,deflate\n\n\n00:08:53.172 response time in milliseconds: 227\n1 < 200\n1 < Date: Wed, 28 Dec 2022 03:08:53 GMT\n1 < Content-Type: application\/json; charset=utf-8\n1 < Transfer-Encoding: chunked\n1 < Connection: keep-alive\n1 < X-Powered-By: Express\n1 < Access-Control-Allow-Origin: *\n1 < Etag: W\/\"406-ut0vzoCuidvyMf8arZpMpJ6ZRDw\"\n1 < Via: 1.1 vegur\n1 < Cache-Control: max-age=14400\n1 < CF-Cache-Status: HIT\n1 < Age: 1851\n1 < Report-To: {\"endpoints\":[{\"url\":\"https:\\\/\\\/a.nel.cloudflare.com\\\/report\\\/v3?s=gWDKSB8pB%2B5yzQ7N6ENOBV2c0Pn2Xfve%2BAR46BU36RF%2B4sxCx6dtXLcVdpcQeaCiFNczqsih9M5y%2BHG54XszebcNwH4qYT1hzGJpqaFk7ZWHqa2%2FCF6W3i0R9A%3D%3D\"}],\"group\":\"cf-nel\",\"max_age\":604800}\n1 < NEL: {\"success_fraction\":0,\"report_to\":\"cf-nel\",\"max_age\":604800}\n1 < Vary: Accept-Encoding\n1 < Server: cloudflare\n1 < CF-RAY: 7807180fec8aa555-GRU\n{\"page\":2,\"per_page\":6,\"total\":12,\"total_pages\":2,\"data\":[{\"id\":7,\"email\":\"michael.lawson@reqres.in\",\"first_name\":\"Michael\",\"last_name\":\"Lawson\",\"avatar\":\"https:\/\/reqres.in\/img\/faces\/7-image.jpg\"},{\"id\":8,\"email\":\"lindsay.ferguson@reqres.in\",\"first_name\":\"Lindsay\",\"last_name\":\"Ferguson\",\"avatar\":\"https:\/\/reqres.in\/img\/faces\/8-image.jpg\"},{\"id\":9,\"email\":\"tobias.funke@reqres.in\",\"first_name\":\"Tobias\",\"last_name\":\"Funke\",\"avatar\":\"https:\/\/reqres.in\/img\/faces\/9-image.jpg\"},{\"id\":10,\"email\":\"byron.fields@reqres.in\",\"first_name\":\"Byron\",\"last_name\":\"Fields\",\"avatar\":\"https:\/\/reqres.in\/img\/faces\/10-image.jpg\"},{\"id\":11,\"email\":\"george.edwards@reqres.in\",\"first_name\":\"George\",\"last_name\":\"Edwards\",\"avatar\":\"https:\/\/reqres.in\/img\/faces\/11-image.jpg\"},{\"id\":12,\"email\":\"rachel.howell@reqres.in\",\"first_name\":\"Rachel\",\"last_name\":\"Howell\",\"avatar\":\"https:\/\/reqres.in\/img\/faces\/12-image.jpg\"}],\"support\":{\"url\":\"https:\/\/reqres.in\/#support-heading\",\"text\":\"To keep ReqRes free, contributions towards server costs are appreciated!\"}}\n\n"},{"result":{"nanos":47800,"millis":0.0478,"status":"passed"},"step":{"line":38,"prefix":"Then","index":3,"text":"status 200"}},{"result":{"nanos":13603700,"millis":13.6037,"status":"passed"},"step":{"line":39,"prefix":"And","index":4,"text":"print response"},"stepLog":"00:08:53.277 [print] {\n  \"page\": 2,\n  \"per_page\": 6,\n  \"total\": 12,\n  \"total_pages\": 2,\n  \"data\": [\n    {\n      \"id\": 7,\n      \"email\": \"michael.lawson@reqres.in\",\n      \"first_name\": \"Michael\",\n      \"last_name\": \"Lawson\",\n      \"avatar\": \"https:\/\/reqres.in\/img\/faces\/7-image.jpg\"\n    },\n    {\n      \"id\": 8,\n      \"email\": \"lindsay.ferguson@reqres.in\",\n      \"first_name\": \"Lindsay\",\n      \"last_name\": \"Ferguson\",\n      \"avatar\": \"https:\/\/reqres.in\/img\/faces\/8-image.jpg\"\n    },\n    {\n      \"id\": 9,\n      \"email\": \"tobias.funke@reqres.in\",\n      \"first_name\": \"Tobias\",\n      \"last_name\": \"Funke\",\n      \"avatar\": \"https:\/\/reqres.in\/img\/faces\/9-image.jpg\"\n    },\n    {\n      \"id\": 10,\n      \"email\": \"byron.fields@reqres.in\",\n      \"first_name\": \"Byron\",\n      \"last_name\": \"Fields\",\n      \"avatar\": \"https:\/\/reqres.in\/img\/faces\/10-image.jpg\"\n    },\n    {\n      \"id\": 11,\n      \"email\": \"george.edwards@reqres.in\",\n      \"first_name\": \"George\",\n      \"last_name\": \"Edwards\",\n      \"avatar\": \"https:\/\/reqres.in\/img\/faces\/11-image.jpg\"\n    },\n    {\n      \"id\": 12,\n      \"email\": \"rachel.howell@reqres.in\",\n      \"first_name\": \"Rachel\",\n      \"last_name\": \"Howell\",\n      \"avatar\": \"https:\/\/reqres.in\/img\/faces\/12-image.jpg\"\n    }\n  ],\n  \"support\": {\n    \"url\": \"https:\/\/reqres.in\/#support-heading\",\n    \"text\": \"To keep ReqRes free, contributions towards server costs are appreciated!\"\n  }\n}\n \n"},{"result":{"nanos":134347400,"millis":134.3474,"status":"passed"},"step":{"line":40,"prefix":"And","index":5,"text":"match response.data[0].first_name != null"}},{"result":{"nanos":3895000,"millis":3.895,"status":"passed"},"step":{"line":41,"prefix":"And","index":6,"text":"print response.data.length"},"stepLog":"00:08:53.418 [print] 6 \n"},{"result":{"nanos":1539300,"millis":1.5393,"status":"passed"},"step":{"line":42,"prefix":"And","index":7,"text":"assert response.data.length == 6"}},{"result":{"nanos":3439400,"millis":3.4394,"status":"passed"},"step":{"line":43,"prefix":"And","index":8,"text":"match response.data[0].id == 7"}}],"executorName":"main","line":34,"name":"Get Demo 4","description":"","durationMillis":487.0558,"startTime":1672196932931,"failed":false,"refId":"[4:34]","endTime":1672196933424,"exampleIndex":-1}],"callDepth":0,"name":"Get API Demo","description":"","resultDate":"2022-12-28 12:08:53 AM","durationMillis":2244.5422,"passedCount":1}