{"failedCount":0,"prefixedPath":"src\/test\/java\/tests\/Get.feature","packageQualifiedName":"src.test.java.tests.Get","loopIndex":-1,"relativePath":"src\/test\/java\/tests\/Get.feature","scenarioResults":[{"sectionIndex":0,"stepResults":[{"result":{"nanos":73880800,"millis":73.8808,"status":"passed"},"step":{"background":true,"line":4,"prefix":"*","index":0,"text":"url 'https:\/\/reqres.in\/api'"}},{"result":{"nanos":792600,"millis":0.7926,"status":"passed"},"step":{"background":true,"line":5,"prefix":"*","index":1,"text":"header Accept = 'application\/json'"}},{"result":{"nanos":493300,"millis":0.4933,"status":"passed"},"step":{"line":9,"prefix":"Given","index":0,"text":"path '\/users?page=2'"}},{"result":{"nanos":801837700,"millis":801.8377,"status":"passed"},"step":{"line":10,"prefix":"When","index":1,"text":"method GET"},"stepLog":"20:13:19.598 request:\n1 > GET https:\/\/reqres.in\/api\/users%3Fpage=2\n1 > Accept: application\/json\n1 > Host: reqres.in\n1 > Connection: Keep-Alive\n1 > User-Agent: Apache-HttpClient\/4.5.13 (Java\/15.0.2)\n1 > Accept-Encoding: gzip,deflate\n\n\n20:13:19.920 response time in milliseconds: 317\n1 < 200\n1 < Date: Wed, 21 Dec 2022 23:13:29 GMT\n1 < Content-Type: application\/json; charset=utf-8\n1 < Transfer-Encoding: chunked\n1 < Connection: keep-alive\n1 < X-Powered-By: Express\n1 < Access-Control-Allow-Origin: *\n1 < Etag: W\/\"2c1-N6Rqerxquq2kgQhL51EiSg4x0R8\"\n1 < Via: 1.1 vegur\n1 < Cache-Control: max-age=14400\n1 < CF-Cache-Status: HIT\n1 < Age: 701\n1 < Report-To: {\"endpoints\":[{\"url\":\"https:\\\/\\\/a.nel.cloudflare.com\\\/report\\\/v3?s=Hbh1z1Ix4DEYWgTaQMIlu3A4xD%2BaUBEgB%2Br6CWOEZJ5a9vveTQcfXhsgT5N%2BiCGrWoUlUWYrpWlaENOckTn66If5CXMyJPzBl3JSMgTq3Mb7QI0w4z69Yptqig%3D%3D\"}],\"group\":\"cf-nel\",\"max_age\":604800}\n1 < NEL: {\"success_fraction\":0,\"report_to\":\"cf-nel\",\"max_age\":604800}\n1 < Vary: Accept-Encoding\n1 < Server: cloudflare\n1 < CF-RAY: 77d44efe1bbe51b3-GRU\n{\"page\":1,\"per_page\":6,\"total\":12,\"total_pages\":2,\"data\":[{\"id\":1,\"name\":\"cerulean\",\"year\":2000,\"color\":\"#98B2D1\",\"pantone_value\":\"15-4020\"},{\"id\":2,\"name\":\"fuchsia rose\",\"year\":2001,\"color\":\"#C74375\",\"pantone_value\":\"17-2031\"},{\"id\":3,\"name\":\"true red\",\"year\":2002,\"color\":\"#BF1932\",\"pantone_value\":\"19-1664\"},{\"id\":4,\"name\":\"aqua sky\",\"year\":2003,\"color\":\"#7BC4C4\",\"pantone_value\":\"14-4811\"},{\"id\":5,\"name\":\"tigerlily\",\"year\":2004,\"color\":\"#E2583E\",\"pantone_value\":\"17-1456\"},{\"id\":6,\"name\":\"blue turquoise\",\"year\":2005,\"color\":\"#53B0AE\",\"pantone_value\":\"15-5217\"}],\"support\":{\"url\":\"https:\/\/reqres.in\/#support-heading\",\"text\":\"To keep ReqRes free, contributions towards server costs are appreciated!\"}}\n\n"},{"result":{"nanos":42000,"millis":0.042,"status":"passed"},"step":{"line":11,"prefix":"Then","index":2,"text":"status 200"}},{"result":{"nanos":108502600,"millis":108.5026,"status":"passed"},"step":{"line":12,"prefix":"And","index":3,"text":"print response"},"stepLog":"20:13:20.064 [print] {\n  \"page\": 1,\n  \"per_page\": 6,\n  \"total\": 12,\n  \"total_pages\": 2,\n  \"data\": [\n    {\n      \"id\": 1,\n      \"name\": \"cerulean\",\n      \"year\": 2000,\n      \"color\": \"#98B2D1\",\n      \"pantone_value\": \"15-4020\"\n    },\n    {\n      \"id\": 2,\n      \"name\": \"fuchsia rose\",\n      \"year\": 2001,\n      \"color\": \"#C74375\",\n      \"pantone_value\": \"17-2031\"\n    },\n    {\n      \"id\": 3,\n      \"name\": \"true red\",\n      \"year\": 2002,\n      \"color\": \"#BF1932\",\n      \"pantone_value\": \"19-1664\"\n    },\n    {\n      \"id\": 4,\n      \"name\": \"aqua sky\",\n      \"year\": 2003,\n      \"color\": \"#7BC4C4\",\n      \"pantone_value\": \"14-4811\"\n    },\n    {\n      \"id\": 5,\n      \"name\": \"tigerlily\",\n      \"year\": 2004,\n      \"color\": \"#E2583E\",\n      \"pantone_value\": \"17-1456\"\n    },\n    {\n      \"id\": 6,\n      \"name\": \"blue turquoise\",\n      \"year\": 2005,\n      \"color\": \"#53B0AE\",\n      \"pantone_value\": \"15-5217\"\n    }\n  ],\n  \"support\": {\n    \"url\": \"https:\/\/reqres.in\/#support-heading\",\n    \"text\": \"To keep ReqRes free, contributions towards server costs are appreciated!\"\n  }\n}\n \n"},{"result":{"nanos":2804600,"millis":2.8046,"status":"passed"},"step":{"line":13,"prefix":"And","index":4,"text":"print responseStatus"},"stepLog":"20:13:20.069 [print] 200 \n"},{"result":{"nanos":1019500,"millis":1.0195,"status":"passed"},"step":{"line":14,"prefix":"And","index":5,"text":"print responseTime"},"stepLog":"20:13:20.070 [print] 317 \n"},{"result":{"nanos":1293600,"millis":1.2936,"status":"passed"},"step":{"line":15,"prefix":"And","index":6,"text":"print responseHeaders"},"stepLog":"20:13:20.071 [print] {\n  \"Date\": [\n    \"Wed, 21 Dec 2022 23:13:29 GMT\"\n  ],\n  \"Content-Type\": [\n    \"application\/json; charset=utf-8\"\n  ],\n  \"Transfer-Encoding\": [\n    \"chunked\"\n  ],\n  \"Connection\": [\n    \"keep-alive\"\n  ],\n  \"X-Powered-By\": [\n    \"Express\"\n  ],\n  \"Access-Control-Allow-Origin\": [\n    \"*\"\n  ],\n  \"Etag\": [\n    \"W\/\\\"2c1-N6Rqerxquq2kgQhL51EiSg4x0R8\\\"\"\n  ],\n  \"Via\": [\n    \"1.1 vegur\"\n  ],\n  \"Cache-Control\": [\n    \"max-age=14400\"\n  ],\n  \"CF-Cache-Status\": [\n    \"HIT\"\n  ],\n  \"Age\": [\n    \"701\"\n  ],\n  \"Report-To\": [\n    \"{\\\"endpoints\\\":[{\\\"url\\\":\\\"https:\\\\\/\\\\\/a.nel.cloudflare.com\\\\\/report\\\\\/v3?s=Hbh1z1Ix4DEYWgTaQMIlu3A4xD%2BaUBEgB%2Br6CWOEZJ5a9vveTQcfXhsgT5N%2BiCGrWoUlUWYrpWlaENOckTn66If5CXMyJPzBl3JSMgTq3Mb7QI0w4z69Yptqig%3D%3D\\\"}],\\\"group\\\":\\\"cf-nel\\\",\\\"max_age\\\":604800}\"\n  ],\n  \"NEL\": [\n    \"{\\\"success_fraction\\\":0,\\\"report_to\\\":\\\"cf-nel\\\",\\\"max_age\\\":604800}\"\n  ],\n  \"Vary\": [\n    \"Accept-Encoding\"\n  ],\n  \"Server\": [\n    \"cloudflare\"\n  ],\n  \"CF-RAY\": [\n    \"77d44efe1bbe51b3-GRU\"\n  ],\n  \"Set-Cookie\": [\n  ]\n}\n \n"},{"result":{"nanos":950500,"millis":0.9505,"status":"passed"},"step":{"line":16,"prefix":"And","index":7,"text":"print responseCookies"},"stepLog":"20:13:20.072 [print] {\n}\n \n"}],"executorName":"main","line":8,"name":"Get Demo 1","description":"","durationMillis":991.6172,"startTime":1671664399065,"failed":false,"refId":"[1:8]","endTime":1671664400073,"exampleIndex":-1},{"sectionIndex":1,"stepResults":[{"result":{"nanos":638500,"millis":0.6385,"status":"passed"},"step":{"background":true,"line":4,"prefix":"*","index":0,"text":"url 'https:\/\/reqres.in\/api'"}},{"result":{"nanos":511300,"millis":0.5113,"status":"passed"},"step":{"background":true,"line":5,"prefix":"*","index":1,"text":"header Accept = 'application\/json'"}},{"result":{"nanos":355600,"millis":0.3556,"status":"passed"},"step":{"line":20,"prefix":"Given","index":0,"text":"path '\/users?page=2'"}},{"result":{"nanos":88642100,"millis":88.6421,"status":"passed"},"step":{"line":21,"prefix":"When","index":1,"text":"method GET"},"stepLog":"20:13:20.084 request:\n1 > GET https:\/\/reqres.in\/api\/users%3Fpage=2\n1 > Accept: application\/json\n1 > Host: reqres.in\n1 > Connection: Keep-Alive\n1 > User-Agent: Apache-HttpClient\/4.5.13 (Java\/15.0.2)\n1 > Accept-Encoding: gzip,deflate\n\n\n20:13:20.170 response time in milliseconds: 85\n1 < 200\n1 < Date: Wed, 21 Dec 2022 23:13:29 GMT\n1 < Content-Type: application\/json; charset=utf-8\n1 < Transfer-Encoding: chunked\n1 < Connection: keep-alive\n1 < X-Powered-By: Express\n1 < Access-Control-Allow-Origin: *\n1 < Etag: W\/\"2c1-N6Rqerxquq2kgQhL51EiSg4x0R8\"\n1 < Via: 1.1 vegur\n1 < Cache-Control: max-age=14400\n1 < CF-Cache-Status: HIT\n1 < Age: 701\n1 < Report-To: {\"endpoints\":[{\"url\":\"https:\\\/\\\/a.nel.cloudflare.com\\\/report\\\/v3?s=VHVfRFmt9wTxyD6oR%2ByDDTwap18uLLE9Bu%2BNHXF16Mb8oZBJa0X%2FuuvnrTh8nZAGZXbiBFOQJ0RrbGEwtDwfGj8u%2F%2B%2Fi18thZnmOYJs%2BBhqRinOhbW1%2BYwPZ%2BQ%3D%3D\"}],\"group\":\"cf-nel\",\"max_age\":604800}\n1 < NEL: {\"success_fraction\":0,\"report_to\":\"cf-nel\",\"max_age\":604800}\n1 < Vary: Accept-Encoding\n1 < Server: cloudflare\n1 < CF-RAY: 77d44effde4a6b18-GRU\n{\"page\":1,\"per_page\":6,\"total\":12,\"total_pages\":2,\"data\":[{\"id\":1,\"name\":\"cerulean\",\"year\":2000,\"color\":\"#98B2D1\",\"pantone_value\":\"15-4020\"},{\"id\":2,\"name\":\"fuchsia rose\",\"year\":2001,\"color\":\"#C74375\",\"pantone_value\":\"17-2031\"},{\"id\":3,\"name\":\"true red\",\"year\":2002,\"color\":\"#BF1932\",\"pantone_value\":\"19-1664\"},{\"id\":4,\"name\":\"aqua sky\",\"year\":2003,\"color\":\"#7BC4C4\",\"pantone_value\":\"14-4811\"},{\"id\":5,\"name\":\"tigerlily\",\"year\":2004,\"color\":\"#E2583E\",\"pantone_value\":\"17-1456\"},{\"id\":6,\"name\":\"blue turquoise\",\"year\":2005,\"color\":\"#53B0AE\",\"pantone_value\":\"15-5217\"}],\"support\":{\"url\":\"https:\/\/reqres.in\/#support-heading\",\"text\":\"To keep ReqRes free, contributions towards server costs are appreciated!\"}}\n\n"},{"result":{"nanos":11300,"millis":0.0113,"status":"passed"},"step":{"line":22,"prefix":"Then","index":2,"text":"status 200"}},{"result":{"nanos":872200,"millis":0.8722,"status":"passed"},"step":{"line":23,"prefix":"And","index":3,"text":"print response"},"stepLog":"20:13:20.172 [print] {\n  \"page\": 1,\n  \"per_page\": 6,\n  \"total\": 12,\n  \"total_pages\": 2,\n  \"data\": [\n    {\n      \"id\": 1,\n      \"name\": \"cerulean\",\n      \"year\": 2000,\n      \"color\": \"#98B2D1\",\n      \"pantone_value\": \"15-4020\"\n    },\n    {\n      \"id\": 2,\n      \"name\": \"fuchsia rose\",\n      \"year\": 2001,\n      \"color\": \"#C74375\",\n      \"pantone_value\": \"17-2031\"\n    },\n    {\n      \"id\": 3,\n      \"name\": \"true red\",\n      \"year\": 2002,\n      \"color\": \"#BF1932\",\n      \"pantone_value\": \"19-1664\"\n    },\n    {\n      \"id\": 4,\n      \"name\": \"aqua sky\",\n      \"year\": 2003,\n      \"color\": \"#7BC4C4\",\n      \"pantone_value\": \"14-4811\"\n    },\n    {\n      \"id\": 5,\n      \"name\": \"tigerlily\",\n      \"year\": 2004,\n      \"color\": \"#E2583E\",\n      \"pantone_value\": \"17-1456\"\n    },\n    {\n      \"id\": 6,\n      \"name\": \"blue turquoise\",\n      \"year\": 2005,\n      \"color\": \"#53B0AE\",\n      \"pantone_value\": \"15-5217\"\n    }\n  ],\n  \"support\": {\n    \"url\": \"https:\/\/reqres.in\/#support-heading\",\n    \"text\": \"To keep ReqRes free, contributions towards server costs are appreciated!\"\n  }\n}\n \n"}],"executorName":"main","line":19,"name":"Get Demo 2","description":"","durationMillis":91.031,"startTime":1671664400079,"failed":false,"refId":"[2:19]","endTime":1671664400172,"exampleIndex":-1},{"sectionIndex":2,"stepResults":[{"result":{"nanos":279100,"millis":0.2791,"status":"passed"},"step":{"background":true,"line":4,"prefix":"*","index":0,"text":"url 'https:\/\/reqres.in\/api'"}},{"result":{"nanos":165100,"millis":0.1651,"status":"passed"},"step":{"background":true,"line":5,"prefix":"*","index":1,"text":"header Accept = 'application\/json'"}},{"result":{"nanos":471000,"millis":0.471,"status":"passed"},"step":{"line":27,"prefix":"Given","index":0,"text":"path '\/users'"}},{"result":{"nanos":2492700,"millis":2.4927,"status":"passed"},"step":{"line":28,"prefix":"And","index":1,"text":"param page = 2"}},{"result":{"nanos":78092500,"millis":78.0925,"status":"passed"},"step":{"line":29,"prefix":"When","index":2,"text":"method GET"},"stepLog":"20:13:20.185 request:\n1 > GET https:\/\/reqres.in\/api\/users?page=2\n1 > Accept: application\/json\n1 > Host: reqres.in\n1 > Connection: Keep-Alive\n1 > User-Agent: Apache-HttpClient\/4.5.13 (Java\/15.0.2)\n1 > Accept-Encoding: gzip,deflate\n\n\n20:13:20.258 response time in milliseconds: 73\n1 < 200\n1 < Date: Wed, 21 Dec 2022 23:13:29 GMT\n1 < Content-Type: application\/json; charset=utf-8\n1 < Transfer-Encoding: chunked\n1 < Connection: keep-alive\n1 < X-Powered-By: Express\n1 < Access-Control-Allow-Origin: *\n1 < Etag: W\/\"406-ut0vzoCuidvyMf8arZpMpJ6ZRDw\"\n1 < Via: 1.1 vegur\n1 < Cache-Control: max-age=14400\n1 < CF-Cache-Status: HIT\n1 < Age: 2348\n1 < Report-To: {\"endpoints\":[{\"url\":\"https:\\\/\\\/a.nel.cloudflare.com\\\/report\\\/v3?s=ZMqP4Is6lnsRMN24WLMaszuD9OXOn0fUm6RyboM%2BOODVdsAqUtkrvj9Qb7WY1mYvFu4S%2FYIAtp0p2B9CT2QC%2Bn2kjEjtEtT%2BY08uJr0%2BIJoCFFmEoXhJtWHLbA%3D%3D\"}],\"group\":\"cf-nel\",\"max_age\":604800}\n1 < NEL: {\"success_fraction\":0,\"report_to\":\"cf-nel\",\"max_age\":604800}\n1 < Vary: Accept-Encoding\n1 < Server: cloudflare\n1 < CF-RAY: 77d44f006ae10315-GRU\n{\"page\":2,\"per_page\":6,\"total\":12,\"total_pages\":2,\"data\":[{\"id\":7,\"email\":\"michael.lawson@reqres.in\",\"first_name\":\"Michael\",\"last_name\":\"Lawson\",\"avatar\":\"https:\/\/reqres.in\/img\/faces\/7-image.jpg\"},{\"id\":8,\"email\":\"lindsay.ferguson@reqres.in\",\"first_name\":\"Lindsay\",\"last_name\":\"Ferguson\",\"avatar\":\"https:\/\/reqres.in\/img\/faces\/8-image.jpg\"},{\"id\":9,\"email\":\"tobias.funke@reqres.in\",\"first_name\":\"Tobias\",\"last_name\":\"Funke\",\"avatar\":\"https:\/\/reqres.in\/img\/faces\/9-image.jpg\"},{\"id\":10,\"email\":\"byron.fields@reqres.in\",\"first_name\":\"Byron\",\"last_name\":\"Fields\",\"avatar\":\"https:\/\/reqres.in\/img\/faces\/10-image.jpg\"},{\"id\":11,\"email\":\"george.edwards@reqres.in\",\"first_name\":\"George\",\"last_name\":\"Edwards\",\"avatar\":\"https:\/\/reqres.in\/img\/faces\/11-image.jpg\"},{\"id\":12,\"email\":\"rachel.howell@reqres.in\",\"first_name\":\"Rachel\",\"last_name\":\"Howell\",\"avatar\":\"https:\/\/reqres.in\/img\/faces\/12-image.jpg\"}],\"support\":{\"url\":\"https:\/\/reqres.in\/#support-heading\",\"text\":\"To keep ReqRes free, contributions towards server costs are appreciated!\"}}\n\n"},{"result":{"nanos":13000,"millis":0.013,"status":"passed"},"step":{"line":30,"prefix":"Then","index":3,"text":"status 200"}},{"result":{"nanos":801400,"millis":0.8014,"status":"passed"},"step":{"line":31,"prefix":"And","index":4,"text":"print response"},"stepLog":"20:13:20.261 [print] {\n  \"page\": 2,\n  \"per_page\": 6,\n  \"total\": 12,\n  \"total_pages\": 2,\n  \"data\": [\n    {\n      \"id\": 7,\n      \"email\": \"michael.lawson@reqres.in\",\n      \"first_name\": \"Michael\",\n      \"last_name\": \"Lawson\",\n      \"avatar\": \"https:\/\/reqres.in\/img\/faces\/7-image.jpg\"\n    },\n    {\n      \"id\": 8,\n      \"email\": \"lindsay.ferguson@reqres.in\",\n      \"first_name\": \"Lindsay\",\n      \"last_name\": \"Ferguson\",\n      \"avatar\": \"https:\/\/reqres.in\/img\/faces\/8-image.jpg\"\n    },\n    {\n      \"id\": 9,\n      \"email\": \"tobias.funke@reqres.in\",\n      \"first_name\": \"Tobias\",\n      \"last_name\": \"Funke\",\n      \"avatar\": \"https:\/\/reqres.in\/img\/faces\/9-image.jpg\"\n    },\n    {\n      \"id\": 10,\n      \"email\": \"byron.fields@reqres.in\",\n      \"first_name\": \"Byron\",\n      \"last_name\": \"Fields\",\n      \"avatar\": \"https:\/\/reqres.in\/img\/faces\/10-image.jpg\"\n    },\n    {\n      \"id\": 11,\n      \"email\": \"george.edwards@reqres.in\",\n      \"first_name\": \"George\",\n      \"last_name\": \"Edwards\",\n      \"avatar\": \"https:\/\/reqres.in\/img\/faces\/11-image.jpg\"\n    },\n    {\n      \"id\": 12,\n      \"email\": \"rachel.howell@reqres.in\",\n      \"first_name\": \"Rachel\",\n      \"last_name\": \"Howell\",\n      \"avatar\": \"https:\/\/reqres.in\/img\/faces\/12-image.jpg\"\n    }\n  ],\n  \"support\": {\n    \"url\": \"https:\/\/reqres.in\/#support-heading\",\n    \"text\": \"To keep ReqRes free, contributions towards server costs are appreciated!\"\n  }\n}\n \n"}],"executorName":"main","line":26,"name":"Get Demo 3","description":"","durationMillis":82.3148,"startTime":1671664400178,"failed":false,"refId":"[3:26]","endTime":1671664400261,"exampleIndex":-1},{"sectionIndex":3,"stepResults":[{"result":{"nanos":153700,"millis":0.1537,"status":"passed"},"step":{"background":true,"line":4,"prefix":"*","index":0,"text":"url 'https:\/\/reqres.in\/api'"}},{"result":{"nanos":116800,"millis":0.1168,"status":"passed"},"step":{"background":true,"line":5,"prefix":"*","index":1,"text":"header Accept = 'application\/json'"}},{"result":{"nanos":58100,"millis":0.0581,"status":"passed"},"step":{"line":35,"prefix":"Given","index":0,"text":"path '\/users'"}},{"result":{"nanos":108300,"millis":0.1083,"status":"passed"},"step":{"line":36,"prefix":"And","index":1,"text":"param page = 2"}},{"result":{"nanos":66076400,"millis":66.0764,"status":"passed"},"step":{"line":37,"prefix":"When","index":2,"text":"method GET"},"stepLog":"20:13:20.266 request:\n1 > GET https:\/\/reqres.in\/api\/users?page=2\n1 > Accept: application\/json\n1 > Host: reqres.in\n1 > Connection: Keep-Alive\n1 > User-Agent: Apache-HttpClient\/4.5.13 (Java\/15.0.2)\n1 > Accept-Encoding: gzip,deflate\n\n\n20:13:20.330 response time in milliseconds: 64\n1 < 200\n1 < Date: Wed, 21 Dec 2022 23:13:29 GMT\n1 < Content-Type: application\/json; charset=utf-8\n1 < Transfer-Encoding: chunked\n1 < Connection: keep-alive\n1 < X-Powered-By: Express\n1 < Access-Control-Allow-Origin: *\n1 < Etag: W\/\"406-ut0vzoCuidvyMf8arZpMpJ6ZRDw\"\n1 < Via: 1.1 vegur\n1 < Cache-Control: max-age=14400\n1 < CF-Cache-Status: HIT\n1 < Age: 2348\n1 < Report-To: {\"endpoints\":[{\"url\":\"https:\\\/\\\/a.nel.cloudflare.com\\\/report\\\/v3?s=e4zEc%2Fcq8r8jRvbeBKmHXg2Ya%2FpwBX2JKLLFXUI9Ff7UutKBnJAUTcgltQMSgA%2FY%2BoBBRCSXDgatjRuxXOO8nZvNHiE0BKWNEoSO5vGK6AYghZgyeZcObAWHng%3D%3D\"}],\"group\":\"cf-nel\",\"max_age\":604800}\n1 < NEL: {\"success_fraction\":0,\"report_to\":\"cf-nel\",\"max_age\":604800}\n1 < Vary: Accept-Encoding\n1 < Server: cloudflare\n1 < CF-RAY: 77d44f00dc2b0290-GRU\n{\"page\":2,\"per_page\":6,\"total\":12,\"total_pages\":2,\"data\":[{\"id\":7,\"email\":\"michael.lawson@reqres.in\",\"first_name\":\"Michael\",\"last_name\":\"Lawson\",\"avatar\":\"https:\/\/reqres.in\/img\/faces\/7-image.jpg\"},{\"id\":8,\"email\":\"lindsay.ferguson@reqres.in\",\"first_name\":\"Lindsay\",\"last_name\":\"Ferguson\",\"avatar\":\"https:\/\/reqres.in\/img\/faces\/8-image.jpg\"},{\"id\":9,\"email\":\"tobias.funke@reqres.in\",\"first_name\":\"Tobias\",\"last_name\":\"Funke\",\"avatar\":\"https:\/\/reqres.in\/img\/faces\/9-image.jpg\"},{\"id\":10,\"email\":\"byron.fields@reqres.in\",\"first_name\":\"Byron\",\"last_name\":\"Fields\",\"avatar\":\"https:\/\/reqres.in\/img\/faces\/10-image.jpg\"},{\"id\":11,\"email\":\"george.edwards@reqres.in\",\"first_name\":\"George\",\"last_name\":\"Edwards\",\"avatar\":\"https:\/\/reqres.in\/img\/faces\/11-image.jpg\"},{\"id\":12,\"email\":\"rachel.howell@reqres.in\",\"first_name\":\"Rachel\",\"last_name\":\"Howell\",\"avatar\":\"https:\/\/reqres.in\/img\/faces\/12-image.jpg\"}],\"support\":{\"url\":\"https:\/\/reqres.in\/#support-heading\",\"text\":\"To keep ReqRes free, contributions towards server costs are appreciated!\"}}\n\n"},{"result":{"nanos":11600,"millis":0.0116,"status":"passed"},"step":{"line":38,"prefix":"Then","index":3,"text":"status 200"}},{"result":{"nanos":816200,"millis":0.8162,"status":"passed"},"step":{"line":39,"prefix":"And","index":4,"text":"print response"},"stepLog":"20:13:20.332 [print] {\n  \"page\": 2,\n  \"per_page\": 6,\n  \"total\": 12,\n  \"total_pages\": 2,\n  \"data\": [\n    {\n      \"id\": 7,\n      \"email\": \"michael.lawson@reqres.in\",\n      \"first_name\": \"Michael\",\n      \"last_name\": \"Lawson\",\n      \"avatar\": \"https:\/\/reqres.in\/img\/faces\/7-image.jpg\"\n    },\n    {\n      \"id\": 8,\n      \"email\": \"lindsay.ferguson@reqres.in\",\n      \"first_name\": \"Lindsay\",\n      \"last_name\": \"Ferguson\",\n      \"avatar\": \"https:\/\/reqres.in\/img\/faces\/8-image.jpg\"\n    },\n    {\n      \"id\": 9,\n      \"email\": \"tobias.funke@reqres.in\",\n      \"first_name\": \"Tobias\",\n      \"last_name\": \"Funke\",\n      \"avatar\": \"https:\/\/reqres.in\/img\/faces\/9-image.jpg\"\n    },\n    {\n      \"id\": 10,\n      \"email\": \"byron.fields@reqres.in\",\n      \"first_name\": \"Byron\",\n      \"last_name\": \"Fields\",\n      \"avatar\": \"https:\/\/reqres.in\/img\/faces\/10-image.jpg\"\n    },\n    {\n      \"id\": 11,\n      \"email\": \"george.edwards@reqres.in\",\n      \"first_name\": \"George\",\n      \"last_name\": \"Edwards\",\n      \"avatar\": \"https:\/\/reqres.in\/img\/faces\/11-image.jpg\"\n    },\n    {\n      \"id\": 12,\n      \"email\": \"rachel.howell@reqres.in\",\n      \"first_name\": \"Rachel\",\n      \"last_name\": \"Howell\",\n      \"avatar\": \"https:\/\/reqres.in\/img\/faces\/12-image.jpg\"\n    }\n  ],\n  \"support\": {\n    \"url\": \"https:\/\/reqres.in\/#support-heading\",\n    \"text\": \"To keep ReqRes free, contributions towards server costs are appreciated!\"\n  }\n}\n \n"},{"result":{"nanos":43243800,"millis":43.2438,"status":"passed"},"step":{"line":40,"prefix":"And","index":5,"text":"match response.data[0].first_name != null"}},{"result":{"nanos":1867800,"millis":1.8678,"status":"passed"},"step":{"line":41,"prefix":"And","index":6,"text":"print response.data.length"},"stepLog":"20:13:20.377 [print] 6 \n"},{"result":{"nanos":6461500,"millis":6.4615,"status":"passed"},"step":{"line":42,"prefix":"And","index":7,"text":"assert response.data.length == 6"}},{"result":{"nanos":1829400,"millis":1.8294,"status":"passed"},"step":{"line":43,"prefix":"And","index":8,"text":"match response.data[0].id == 7"}}],"executorName":"main","line":34,"name":"Get Demo 4","description":"","durationMillis":120.7436,"startTime":1671664400264,"failed":false,"refId":"[4:34]","endTime":1671664400386,"exampleIndex":-1}],"callDepth":0,"name":"Get API Demo","description":"","resultDate":"2022-12-21 08:13:20 PM","durationMillis":1285.7066,"passedCount":4}